﻿ItemName,Etsy,Amazon
Custom,CUS, ,
Trick or Treat,AAA,FH-Z15J-1HW1
Scallop Monogram,AAB,17-YJY9-207F
Charolette Font,AAC,WI-JB15-9RMP
Brooklyn Font,AAD,26-R6I3-I35W
Bodhi Font,AAE,GG-QN0S-HFY
Katie Font,AAF,VX-APCZ-040E
Emma Font,AAG,35-JQE4-Y6AX
Sara Letter,AAH,H8-121L-UB8D
Circle Script,AAI,XV-KKM8-WAIB
Circle Monogram,AAJ,TN-AIJI-H38H
Anchor Monogram,AAK,V8-7F5L-6U7X
Modern Monogram,AAL,C0-J9Y6-Z0L3
Monogram Letter,AAM,0L-NFQ2-SBXX
Regular Monogram,AAN,monogram101
Foam Tape Pack,AAO,XH-6W3O-PUQA
Glitter Adder,AAP,RL-MC1T-1AJ7
Mixed Monogram,AAQ,AAQ
Antler Monogram,AAR,AAR
Mason Jar Monogram,AAS,AAS
Oval Monogram,AAT,AAT
Botanical Monogram,AAU,AAU
Vintage Frame Monogram,AAV,AAV
Small Bunny Monogram,AAW,AAW
Circle Split Last Name Monogram,AAX,AAX
Square Pattern Monogram,AAY,AAY
Sophia Font,AAZ,AAZ
Last Name Box Monogram,ABA,ABA
Sea Shell Monogram,ACA,ACA
Swirl Letter,ADA,ADA
Heart Monogram,AEA,AEA
Fleur De Lis Name,AFA,AFA
Layered Name Sign 1,AGA,AGA
Layered Name Sign 2,AHA,AHA
Layered Name Sign 3,AIA,AIA
Layered Name Sign 4,AJA,AJA
Layered Name Sign 5,AKA,AKA
Texas Home 1,ALA,ALA
Texas Home 2,AMA,AMA
Texas Home 3,ANA,ANA
Elegant Monogram 1,AOA,AOA
Elegant Monogram 2,APA,APA
Victorian Monogram,AQA,AQA
Fancy Monogram,ARA,ARA
Faith 1,ASA,ASA
Faith 2,ATA,ATA
Faith 3,AUA,AUA
Bow Monogram,AVA,AVA
Bethany Font,AWA,AWA
BaseBall Letter,AXA,AXA
Mickey Font,AYA,AYA
Football Monogram,AZA,AZA
BaseBall Monogram,ABB,ABB
Soccer Monogram,ACB,ACB
Basketball Monogram,ADB,ADB
Lacross Monogram,AEB,AEB
Volleyball monogram,AFB,AFB
Hockey Monogram,AGB,AGB
Crown Monogram,AHB,AHB
School Letter,AIB,AIB
Flamingo Monogram,AJB,AJB
Ballet Monogram,AKB,AKB
Audry Font,ALB,ALB
Owl Monogram,AMB,AMB
Pineapple Monogram,ANB,ANB
Police Badge ,AOB,AOB
Ship Wheel Monogram,APB,APB
Kendall Font,AQB,AQB
Seahorse Monogram,ARB,ARB
South Carolina Monogram,ASB,ASB
Pineapple Monogram 1,ATB,ATB
Pineapple Monogram 2,AUB,AUB
Pineapple Monogram 3,AVB,AVB
Crab Monogram,AWB,AWB
Pumpkin Monogram 1,AXB,AXB
Pumpkin Monogram 2,AZB,AZB
Pumpkin Monogram 3,ACC,ACC
Texas Monogram 1,ADC,ADC
Texas Monogram 2,AEC,AEC
Texas Monogram 3,AFC,AFC
Flourished Split Name,AGC,AGC
Gracie Font,AHC,AHC
Bullseye Monogram ,AIC,AIC
Baseball Name,AJC,AJC
Football Name,AKC,AKC
Soccer Name,ALC,ALC
Basketball Name,AMC,AMC
Hockey Name,ANC,ANC
Lacross Name,AOC,AOC
Rugby Name,APC,APC
Cheer Name,AQC,AQC
Dance Name,ARC,ARC
Ballet Name,ASC,ASC
Gymnastics Name,ATC,ATC
Volleyball Name,AUC,AUC
Bicycle Name,AVC,AVC
Car Name,AWC,AWC
Pumpin Monogram 1,AXC,AXC
Pumpkin Monogram 2,AYC,AYC
Pumpkin Monogram 2,AZC,AZC
Split Boot Name,ADD,ADD
Word 1,AED,AED
Word 2,AFD,AFD
Word 3,AGD,AGD
Word 4,AHD,AHD
Word 5,AID,AID
Word 6,AJD,AJD
Word 7,AKD,AKD
Word 8,ALD,ALD
Word 9,AMD,AMD
Word 10,AND,AND
Word 11,AOD,AOD
Word 12,APD,APD
Word 13,AQD,AQD
Word 14,ARD,ARD
Word 15,ASD,ASD
Word 16,ATD,ATD
Word 17,AUD,AUD
Word 18,AVD,AVD
Word 19,AWD,AWD
Word 20,AXD,AXD
Word 21,AYD,AYD
Word 22,AZD,AZD
Word 23,AEE,AEE
Word 24,AFE,AFE
Word 25,AGE,AGE
Word 26,AHE,AHE
Word 27,AJE,AJE
Word 28,AKE,AKE
Word 29,ALE,ALE
Word 30,AME,AME
Word 31,ANE,ANE
Word 32,AOE,AOE
Word 33,APE,APE
Word 34,AQE,AQE
Word 35,ARE,ARE
Word 36,ASE,ASE
Word 37,ATE,ATE
Word 38,AUE,AUE
Word 39,AVE,AVE
Word 40,AWE,AWE
Word 41,AXE,AXE
Word 42,AYZ,AYZ
Word 43,AZE,AZE
Word 44,AFF,AFF
Word 45,AGE,AGE
Word 46,AHE,AHE
Word 47,AJE,AJE
Word 48,AKE,AKE
Word 49,ALE,ALE
Word 50,AME,AME
Christmas 1,ANE,ANE
Christmas 2,AOE,AOE
Christmas 3,APE,APE
Christmas 4,AQE,AQE
Christmas 5,ARE,ARE
Christmas 6,ASE,ASE
Christmas 7,ATE,ATE
Christmas 8,AUE,AUE
Christmas 9,AVE,AVE
Christmas 10,AWE,AWE
Christmas 11,AXE,AXE
Christmas 12,AYE,AYE
Christmas 13,AZE,AZE
Christmas 14,AFF,AFF
Christmas 15,AGF,AGF
Christmas 16,AHF,AHF
Christmas 17,AIF,AIF
Christmas 18,AJF,AJF
Christmas 19,AKF,AKF
Christmas 20,ALF,ALF
Christmas 21,AMF,AMF
Christmas 22,ANF,ANF
Christmas 23,AOF,AOF
Christmas 24,APF,APF
Christmas 25,AQF,AQF
Christmas 26,ARF,ARF
Christmas 27,ASF,ASF
Christmas 28,ATF,ATF
Christmas 29,AUF,AUF
Christmas 30,AVF,AVF
Christmas 31,AWF,AWF
Christmas 32,AXF,AXF
Christmas 33,AYF,AYF
Christmas 34,AZF,AZF
Christmas 35,AGG,AGG
Christmas 36,AHG,AHG
Christmas 37,AIG,AIG
Christmas 38,AJG,AJG
Christmas 39,AKG,AKG
Christmas 40,ALG,ALG
Christmas 41,AMG,AMG
Christmas 42,ANG,ANG
Christmas 43,AOG,AOG
Christmas 44,APG,APG
Christmas 45,AQG,AQG
Christmas 46,ARG,ARG
Christmas 47,ASG,ASG
Christmas 48,ATG,ATG
Christmas 49,AUG,AUG
Christmas 50,AVG,AVG
Charolette Font CA,AWG,AWG
Bodhi Font CA,AXG,AXG
Katie Font CA,AZG,AZG
Emma Font CA,AHH,AHH
Charolette Font MX,AIH,AIH
Bodhi Font MX,AJH,AJH
Katie Font MX,AKH,AKH
Emma Font MX,ALH,ALH
Charolette Font UK,AMH,AMH
Bodhi Font UK,ANH,ANH
Katie Font UK,AOH,AOH
Emma Font UK,APH,APH