113-5365624-0200235
111-0522858-4499411
114-9663404-5057009
114-9534137-9456262
114-9441611-0399463
114-9439926-4723441
114-9371436-4185055
114-9118365-4561069
114-9111560-9439401
114-8897627-1332258
114-8507739-3954605
114-8365091-8463460
114-8262242-5031449
114-8251457-1830669
114-8097914-5990662
114-8023504-4668210
114-8016493-2018603
114-8010092-0867446
114-7897547-9657845
114-7811949-9189861
114-7805252-0942642
114-7690063-9198654
114-7616540-2705038
114-7290934-1310666
114-6852135-8345812
114-6643461-7854663
114-6549447-1392216
114-6507440-3954656
114-6259845-9905017
114-6093532-7860215
114-5827653-5333044
114-4852730-5273860
114-4784551-5944201
114-4615111-1657852
114-4351520-5932240
114-4320796-4709025
114-4198690-3927414
114-4193619-8737852
114-4019863-5222621
114-3883823-8203457
114-3608422-9210635
114-3530135-4364257
114-3509152-6653013
114-3441997-8129045
114-3058982-3031435
114-2798380-0713831
114-2736912-3034617
114-2652600-6046600
114-2541658-6028264
114-2530458-4457042
114-2450537-3616235
114-2404245-8193014
114-2033775-4698636
114-1787327-8637805
114-1726751-5304258
114-1715582-1809000
114-1701708-2937040
114-1188226-3192262
114-1119224-2721855
114-1087819-3691448
114-0412498-6010655
113-9751966-1492246
113-9669815-2779405
113-9628534-7441067
113-9298156-4833064
113-9135362-9153868
113-9085035-9590657
113-8948300-5681052
113-8939672-2661063
113-8932778-3137017
113-8665878-1784223
113-8459277-1007416
113-8218799-3669015
113-8129978-0573008
113-8107693-5370618
113-7861458-7156255
113-7093738-3778618
113-7052847-4213846
113-6954412-5797857
113-6461986-3425019
113-6159546-2970625
113-5491560-1696223
113-4407314-7656261
113-4323898-5936254
113-3886370-0680258
113-3606542-1734615
113-3478277-3922629
113-3317014-0668252
113-3230477-7649037
113-3008379-9512244
113-3001485-1518641
113-2588563-9477847
113-2422803-5518656
113-2360876-1775441
113-2285895-3723446
113-2181067-8649810
113-2037467-4628253
113-2029666-1865012
113-1927505-6967424
113-1525997-7580244
113-1382001-7057016
113-1359364-2822625
113-1334740-9813854
113-0964987-3909047
113-0875930-4801824
113-0655527-5799465
113-0583669-0804218
113-0534072-4123441
113-0300364-5475427
113-0184350-7848263
113-0048418-0938631
112-9902886-5925821
112-9868351-6812242
112-9461830-4952244
112-9426850-3602648
112-9114653-0263434
112-8981140-4489027
112-8707278-5844246
112-8500746-9651456
112-8345807-9741831
112-8070905-1969004
112-7951672-8470606
112-7691457-9613848
112-7652983-2848206
112-7637218-3249045
112-6805787-1353856
112-6776037-3310661
112-6704021-4582654
112-6542222-3570664
112-6458706-8744269
112-6443895-1028202
112-6377899-9522627
112-6298258-6860258
112-6183192-7397838
112-5851987-9302642
112-5614199-6061812
112-5580097-7378636
112-5373309-0800216
112-5268004-0928200
112-5033535-0017042
112-4985961-3583407
112-4845466-6927468
112-4716402-2957060
112-4571576-3833023
112-4412245-2877024
112-4382852-2932257
112-4161707-4465067
112-4049892-6448221
112-3999128-5043436
112-3954866-9804259
112-3705091-7467441
112-3479299-9703444
112-3407417-3703468
112-3292217-4919437
112-3194559-6185033
112-3138782-4011465
112-3105603-9041822
112-2985146-7729850
112-2963079-8265061
112-2903665-7792205
112-2664335-5316253
112-2471043-9209015
112-2191765-5028211
112-2130681-9167456
112-2000860-9115420
112-1989634-8780214
112-1985849-2109039
112-1865996-5745864
112-1757059-7065832
112-1466818-7254668
112-1391364-9958623
112-0469209-0965021
112-0463666-6873803
112-0347729-5812222
112-0172744-3320260
111-9927661-9669833
111-9806686-4542655
111-9725506-8489050
111-9722356-8780259
111-9722136-0753055
111-9677883-7132237
111-9512616-8270634
111-9125835-8848232
111-9110539-5302625
111-8968417-3645041
111-8774654-3133865
111-8232954-8641067
111-7939985-9892203
111-7917524-5562638
111-7668030-7526615
111-7621004-2356242
111-7612322-5041034
111-7564049-5870645
111-7494114-5376262
111-7344043-0417069
111-6952520-7490655
111-6924423-9975408
111-6920574-3793032
111-6846027-0020260
111-6749949-1758625
111-6442290-5498616
111-6239006-8484253
111-6018287-2145844
111-5925093-9903416
111-5901704-4085015
111-5836496-4593837
111-5577578-3629029
111-5351395-8295411
111-5257863-9756205
111-4634689-7641832
111-4593467-1048202
111-4221879-0299414
111-4138905-9672202
111-4021540-8116269
111-4004232-8505028
111-3952872-4767401
111-3117377-3157062
111-3057301-0917043
111-3039048-1808220
111-2629711-5113838
111-2288258-0742667
111-2078506-8591415
111-2041605-8765020
111-1956510-4325821
111-1605866-7654622
111-1481880-5359438
111-1241403-0470623
111-0309521-9721853
111-0307823-4078652
111-0274338-9515438
111-0168576-3449804
111-0161792-1688242
111-1345251-5442601
114-5173667-0941040
112-5835037-8383442
111-9229398-1424269
112-8810202-9661833
111-8308130-3617849
113-0422030-1389033
114-0465642-0675463
112-2803579-8101027
111-4629399-7777800
111-6989939-0840228
113-8062301-5692267
112-6279721-8681008
112-3937902-3866605
113-1039220-2973818
114-1179568-4215442
114-7578009-2073820
113-5624967-3940256
112-5752809-9071460
112-3375248-0312224
113-2627243-6434658
113-4747177-7771463
114-7381904-5366656
111-8522835-0241865
113-7662327-5929027
111-7976729-6842653
113-5191567-4534658
113-4685650-9298648
114-2016143-5065066
113-1059081-3836202
111-0648152-4216207
113-5318120-4155413
112-4234736-2945845
113-4151694-4257835
113-3705978-0562658
111-9754499-5084231
113-1101874-3950629
113-1101874-3950629
113-0342460-9941813
112-1223284-0833848
113-0051046-8945011
112-8020772-5645037
113-9160154-6921064
113-0817978-6230607
114-1908746-6308208
113-0124045-8327430
114-8087866-7931426
112-8951479-5652219
113-9738475-2991441
111-6976852-0353831
113-4498602-9070613
114-7637167-9429826
111-6117070-7446640
113-3774747-7773863
113-6642792-4755419
112-4357396-0095465
113-2006954-7429816
114-8653600-4598623
114-2520799-3472252
111-3998051-6042625
112-7520107-8189005
111-1416152-3896205
112-0774733-5689844
111-7356928-5709032
114-6035270-2846640
114-3117771-8277851
113-0035540-9788262
113-5432334-0689837
113-2849162-2033066
113-8095199-4396247
114-6841405-5281033
112-8707277-9971462
114-5054702-4728221
114-0599672-5415448
112-8313164-9608243
112-0490698-8538615
114-6362878-2041866
113-2951545-0614603
113-4606936-5086609
114-9462430-6681868
114-3965529-6299438
114-7062233-2605027
112-9953812-6692205
111-0045535-3107470
112-2249719-7405822
112-2211164-7317012
114-6186317-0551426
114-5774811-0849843
114-5422794-7350636
113-2216156-4845858
111-1656636-8081069
113-6918392-3736238
114-5733621-0362625
111-1519666-4641006
112-2860103-9781043
112-9529728-3129836
113-6165899-9966644
111-6421663-4299430
112-0862254-4024260
111-7877648-1233832
112-4952095-9033837
114-3333188-8700206
114-8824860-2092242
111-5065778-1279464
114-9862446-0290653
112-6707174-3567427
111-8335878-1587438
112-2754219-8002629
112-1099173-1796269
113-2189406-5563416
113-1309893-5459436
111-0197008-8346615
114-5665858-5525001
111-3521220-0426655
114-1722403-1816262
111-0018942-4138634
111-3804687-3777810
114-4435439-6133852
113-7894304-1588230
112-9577400-2361000
113-5853683-5696204
111-7531480-1073053
111-2275364-1783427
111-4784492-0594615
112-0263155-7814616
113-3990914-1589836
114-7112386-1901043
111-9381915-1633806
112-5203340-4091439
112-3555115-7170645
113-7227135-4514655
113-1747829-0228256
112-9859970-1308253
114-8959261-7153027
112-1519108-8921803
113-0014340-4646634
113-2006013-8323455
111-1510520-9676216
112-3890637-6086644
111-3225706-1732228
112-9301181-8109856
113-9548367-5737823
112-0705783-7385865
112-9987773-0805861
111-1114350-3978611
112-1462155-9234631
113-0140943-4864249
113-5912912-9713812
111-8849031-1845033
113-8653743-5438644
113-9533690-7821855
114-8964255-2293057
112-6623414-9797842
113-4955154-4421837
112-4192369-4240242
114-2759342-3388269
111-7595000-7958606
113-4652162-2441856
112-0755949-1723428
114-9086411-2697069
111-8741445-6131400
111-7484822-0508225
114-9503479-6886627
111-3881096-9259454
112-8323182-9434602
113-3279729-3582622
112-7342631-9274634
111-6199172-2400227
113-5724579-6031407
112-6161323-6614644
114-5755611-4286608
111-0286711-4928256
112-5729284-4781030
111-7748121-0218628
113-9072277-0236228
112-3288271-0524240
114-9663947-5921838
113-2133336-9268225
114-0782353-8650644
113-7321035-2223443
114-4981840-3997844
114-5075519-6781057
114-6345003-8937063
111-6998430-0882602
114-1109591-2725843
112-9809214-9253860
114-8505860-0445003
111-9342451-1189036
114-7366116-7057812
113-0818633-7740226
112-7113442-6838635
111-8537362-9781056
111-4051840-3764213
114-4988255-1008267
111-2678451-1088238
114-6799628-6638618
111-0843576-2994636
113-2244264-9392231
113-4157805-9143463
112-0122545-4777836
112-3231626-1307453
114-9641059-6913010
114-1999208-4105811
112-6131305-0792209
114-9433733-2757005
112-6335355-8840246
114-1408502-1229030
112-8528671-5814658
113-1356615-8043456
114-6937875-9442626
112-2384821-5378639
112-0226818-7165079
114-4948957-4454655
111-0308158-6313024
111-9590383-0293061
113-4276662-5370661
112-7515048-7722657
111-0179520-0810628
111-9627186-4066603
112-5161869-7868231
112-9321162-4079417
112-2003889-6345843
114-1037267-8631466
111-6023438-2589033
114-9428163-6230616
112-6479447-4397841
114-5184921-1815410
114-1507919-6315450
113-8753544-4848209
113-1131439-4017831
112-8473043-7473804
111-8792011-2105830
111-3725921-7070653
112-8196607-1252221
114-6345003-8937063
114-3793226-6349036
112-5905989-9427427
111-8936690-4816213
114-9913045-3105866
114-8227554-1175430
114-2989931-1179436
113-8888995-3409847
113-6923780-5366635
112-8783673-6044210
112-4296923-3650612
112-4087728-9805050
112-3213604-7637037
112-2736005-9503406
111-3039048-1808220
111-1426500-1186611
112-1435519-1492230
112-7342631-9274634
